01.01	09:04	13:39	18:13	09:08	+0:42	07:23	07:57	08:33	18:45	19:20	19:54
02.01	09:05	13:39	18:14	09:09	+0:46	07:24	07:58	08:33	18:46	19:21	19:55
03.01	09:05	13:40	18:15	09:10	+0:50	07:24	07:58	08:33	18:47	19:22	19:56
04.01	09:05	13:40	18:16	09:11	+0:53	07:24	07:58	08:33	18:48	19:23	19:57
05.01	09:05	13:41	18:17	09:12	+0:59	07:24	07:58	08:33	18:48	19:24	19:58
06.01	09:04	13:41	18:18	09:13	+1:01	07:24	07:58	08:33	18:49	19:24	19:58
07.01	09:04	13:42	18:19	09:14	+1:07	07:24	07:58	08:33	18:50	19:25	19:59
08.01	09:04	13:42	18:20	09:15	+1:09	07:24	07:58	08:33	18:51	19:26	20:00
09.01	09:04	13:42	18:21	09:16	+1:14	07:24	07:58	08:33	18:52	19:27	20:01
10.01	09:04	13:43	18:22	09:18	+1:16	07:24	07:58	08:32	18:53	19:28	20:02
11.01	09:04	13:43	18:23	09:19	+1:21	07:24	07:57	08:32	18:54	19:29	20:03
12.01	09:03	13:44	18:24	09:20	+1:24	07:23	07:57	08:32	18:55	19:30	20:04
13.01	09:03	13:44	18:25	09:22	+1:28	07:23	07:57	08:32	18:56	19:31	20:05
14.01	09:02	13:44	18:26	09:23	+1:30	07:23	07:57	08:31	18:57	19:32	20:06
15.01	09:02	13:45	18:27	09:25	+1:35	07:23	07:56	08:31	18:58	19:33	20:07
16.01	09:02	13:45	18:29	09:27	+1:37	07:22	07:56	08:31	19:00	19:34	20:08
17.01	09:01	13:45	18:30	09:28	+1:41	07:22	07:56	08:30	19:01	19:35	20:09
18.01	09:01	13:46	18:31	09:30	+1:44	07:22	07:55	08:30	19:02	19:36	20:10
19.01	09:00	13:46	18:32	09:32	+1:46	07:21	07:55	08:29	19:03	19:37	20:11
20.01	08:59	13:46	18:33	09:34	+1:50	07:21	07:54	08:29	19:04	19:38	20:12
21.01	08:59	13:47	18:35	09:35	+1:52	07:21	07:54	08:28	19:05	19:40	20:13
22.01	08:58	13:47	18:36	09:37	+1:55	07:20	07:53	08:28	19:06	19:41	20:14
23.01	08:57	13:47	18:37	09:39	+1:59	07:19	07:53	08:27	19:08	19:42	20:15
24.01	08:57	13:48	18:38	09:41	+2:00	07:19	07:52	08:26	19:09	19:43	20:16
25.01	08:56	13:48	18:40	09:43	+2:02	07:18	07:52	08:26	19:10	19:44	20:17
26.01	08:55	13:48	18:41	09:45	+2:06	07:18	07:51	08:25	19:11	19:45	20:18
27.01	08:54	13:48	18:42	09:48	+2:08	07:17	07:50	08:24	19:12	19:46	20:19
28.01	08:53	13:48	18:44	09:50	+2:09	07:16	07:49	08:23	19:14	19:47	20:21
29.01	08:52	13:49	18:45	09:52	+2:12	07:16	07:49	08:22	19:15	19:49	20:22
30.01	08:52	13:49	18:46	09:54	+2:14	07:15	07:48	08:22	19:16	19:50	20:23
31.01	08:51	13:49	18:47	09:56	+2:17	07:14	07:47	08:21	19:17	19:51	20:24
01.02	08:50	13:49	18:49	09:59	+2:18	07:13	07:46	08:20	19:19	19:52	20:25
02.02	08:49	13:49	18:50	10:01	+2:20	07:12	07:45	08:19	19:20	19:53	20:26
03.02	08:47	13:49	18:51	10:03	+2:22	07:12	07:44	08:18	19:21	19:55	20:27
04.02	08:46	13:50	18:53	10:06	+2:23	07:11	07:43	08:17	19:22	19:56	20:29
05.02	08:45	13:50	18:54	10:08	+2:26	07:10	07:42	08:16	19:24	19:57	20:30
06.02	08:44	13:50	18:55	10:11	+2:26	07:09	07:41	08:15	19:25	19:58	20:31
07.02	08:43	13:50	18:57	10:13	+2:29	07:08	07:40	08:14	19:26	19:59	20:32
08.02	08:42	13:50	18:58	10:16	+2:30	07:07	07:39	08:13	19:27	20:00	20:33
09.02	08:41	13:50	18:59	10:18	+2:31	07:06	07:38	08:11	19:29	20:02	20:34
10.02	08:39	13:50	19:01	10:21	+2:32	07:05	07:37	08:10	19:30	20:03	20:35
11.02	08:38	13:50	19:02	10:23	+2:34	07:03	07:36	08:09	19:31	20:04	20:37
12.02	08:37	13:50	19:03	10:26	+2:36	07:02	07:35	08:08	19:32	20:05	20:38
13.02	08:36	13:50	19:05	10:28	+2:36	07:01	07:34	08:07	19:33	20:06	20:39
14.02	08:34	13:50	19:06	10:31	+2:37	07:00	07:32	08:05	19:35	20:08	20:40
15.02	08:33	13:50	19:07	10:34	+2:39	06:59	07:31	08:04	19:36	20:09	20:41
16.02	08:31	13:50	19:08	10:36	+2:39	06:57	07:30	08:03	19:37	20:10	20:42
17.02	08:30	13:50	19:10	10:39	+2:41	06:56	07:29	08:01	19:38	20:11	20:44
18.02	08:29	13:50	19:11	10:42	+2:41	06:55	07:27	08:00	19:40	20:12	20:45
19.02	08:27	13:50	19:12	10:44	+2:42	06:54	07:26	07:59	19:41	20:14	20:46
20.02	08:26	13:50	19:13	10:47	+2:43	06:52	07:25	07:57	19:42	20:15	20:47
21.02	08:24	13:50	19:15	10:50	+2:45	06:51	07:23	07:56	19:43	20:16	20:48
22.02	08:23	13:49	19:16	10:53	+2:44	06:49	07:22	07:54	19:44	20:17	20:49
23.02	08:21	13:49	19:17	10:55	+2:45	06:48	07:20	07:53	19:46	20:18	20:51
24.02	08:20	13:49	19:19	10:58	+2:46	06:46	07:19	07:51	19:47	20:19	20:52
25.02	08:18	13:49	19:20	11:01	+2:46	06:45	07:17	07:50	19:48	20:21	20:53
26.02	08:17	13:49	19:21	11:04	+2:47	06:44	07:16	07:48	19:49	20:22	20:54
27.02	08:15	13:49	19:22	11:07	+2:49	06:42	07:14	07:47	19:50	20:23	20:55
28.02	08:14	13:48	19:23	11:09	+2:47	06:40	07:13	07:45	19:52	20:24	20:57
29.02	08:14	13:48	19:23	11:09	+2:47	06:40	07:13	07:45	19:52	20:24	20:57
30.02	08:14	13:48	19:23	11:09	+2:47	06:40	07:13	07:45	19:52	20:24	20:57
31.02	08:14	13:48	19:23	11:09	+2:47	06:40	07:13	07:45	19:52	20:24	20:57
01.03	07:12	12:48	18:25	11:12	+2:49	05:39	06:11	06:44	18:53	19:25	19:58
02.03	07:10	12:48	18:26	11:15	+2:49	05:37	06:10	06:42	18:54	19:26	19:59
03.03	07:09	12:48	18:27	11:18	+2:49	05:36	06:08	06:41	18:55	19:28	20:00
04.03	07:07	12:48	18:28	11:21	+2:51	05:34	06:07	06:39	18:56	19:29	20:01
05.03	07:05	12:47	18:29	11:23	+2:50	05:32	06:05	06:37	18:57	19:30	20:02
06.03	07:04	12:47	18:31	11:26	+2:50	05:31	06:03	06:36	18:59	19:31	20:04
07.03	07:02	12:47	18:32	11:29	+2:51	05:29	06:02	06:34	19:00	19:32	20:05
08.03	07:00	12:47	18:33	11:32	+2:50	05:27	06:00	06:32	19:01	19:33	20:06
09.03	06:59	12:46	18:34	11:35	+2:52	05:26	05:58	06:31	19:02	19:35	20:07
10.03	06:57	12:46	18:35	11:38	+2:51	05:24	05:57	06:29	19:03	19:36	20:08
11.03	06:55	12:46	18:36	11:41	+2:52	05:22	05:55	06:27	19:04	19:37	20:10
12.03	06:54	12:46	18:38	11:43	+2:52	05:20	05:53	06:26	19:06	19:38	20:11
13.03	06:52	12:45	18:39	11:46	+2:52	05:19	05:52	06:24	19:07	19:39	20:12
14.03	06:50	12:45	18:40	11:49	+2:52	05:17	05:50	06:22	19:08	19:40	20:13
15.03	06:49	12:45	18:41	11:52	+2:52	05:15	05:48	06:21	19:09	19:42	20:15
16.03	06:47	12:45	18:42	11:55	+2:53	05:13	05:46	06:19	19:10	19:43	20:16
17.03	06:45	12:44	18:43	11:58	+2:52	05:11	05:44	06:17	19:11	19:44	20:17
18.03	06:43	12:44	18:44	12:01	+2:52	05:09	05:43	06:15	19:12	19:45	20:18
19.03	06:42	12:44	18:46	12:04	+2:52	05:08	05:41	06:14	19:14	19:46	20:20
20.03	06:40	12:43	18:47	12:06	+2:53	05:06	05:39	06:12	19:15	19:47	20:21
21.03	06:38	12:43	18:48	12:09	+2:52	05:04	05:37	06:10	19:16	19:49	20:22
22.03	06:36	12:43	18:49	12:12	+2:52	05:02	05:36	06:08	19:17	19:50	20:23
23.03	06:35	12:42	18:50	12:15	+2:53	05:00	05:34	06:07	19:18	19:51	20:25
24.03	06:33	12:42	18:51	12:18	+2:52	04:58	05:32	06:05	19:19	19:52	20:26
25.03	06:31	12:42	18:52	12:21	+2:52	04:56	05:30	06:03	19:20	19:53	20:27
26.03	06:29	12:41	18:53	12:24	+2:52	04:54	05:28	06:01	19:22	19:55	20:29
27.03	06:28	12:41	18:55	12:26	+2:51	04:52	05:26	05:59	19:23	19:56	20:30
28.03	06:26	12:41	18:56	12:29	+2:52	04:50	05:25	05:58	19:24	19:57	20:31
29.03	06:24	12:40	18:57	12:32	+2:51	04:48	05:23	05:56	19:25	19:58	20:33
30.03	06:22	12:40	18:58	12:35	+2:51	04:46	05:21	05:54	19:26	19:59	20:34
31.03	06:21	12:40	18:59	12:38	+2:51	04:44	05:19	05:52	19:27	20:01	20:35
01.04	06:19	12:40	19:00	12:41	+2:50	04:42	05:17	05:51	19:28	20:02	20:37
02.04	06:17	12:39	19:01	12:44	+2:50	04:40	05:15	05:49	19:30	20:03	20:38
03.04	06:15	12:39	19:02	12:46	+2:51	04:38	05:13	05:47	19:31	20:04	20:39
04.04	06:14	12:39	19:03	12:49	+2:49	04:36	05:12	05:45	19:32	20:06	20:41
05.04	06:12	12:38	19:05	12:52	+2:49	04:34	05:10	05:44	19:33	20:07	20:42
06.04	06:10	12:38	19:06	12:55	+2:49	04:32	05:08	05:42	19:34	20:08	20:44
07.04	06:09	12:38	19:07	12:58	+2:48	04:30	05:06	05:40	19:35	20:09	20:45
08.04	06:07	12:37	19:08	13:00	+2:49	04:28	05:04	05:38	19:37	20:11	20:46
09.04	06:05	12:37	19:09	13:03	+2:47	04:26	05:02	05:37	19:38	20:12	20:48
10.04	06:04	12:37	19:10	13:06	+2:47	04:24	05:00	05:35	19:39	20:13	20:49
11.04	06:02	12:37	19:11	13:09	+2:47	04:22	04:59	05:33	19:40	20:15	20:51
12.04	06:00	12:36	19:12	13:12	+2:46	04:20	04:57	05:31	19:41	20:16	20:52
13.04	05:59	12:36	19:14	13:14	+2:45	04:18	04:55	05:30	19:42	20:17	20:54
14.04	05:57	12:36	19:15	13:17	+2:45	04:16	04:53	05:28	19:44	20:19	20:55
15.04	05:55	12:36	19:16	13:20	+2:44	04:14	04:51	05:26	19:45	20:20	20:57
16.04	05:54	12:35	19:17	13:23	+2:43	04:12	04:50	05:25	19:46	20:21	20:58
17.04	05:52	12:35	19:18	13:25	+2:43	04:10	04:48	05:23	19:47	20:23	21:00
18.04	05:51	12:35	19:19	13:28	+2:42	04:08	04:46	05:21	19:48	20:24	21:01
19.04	05:49	12:35	19:20	13:31	+2:41	04:06	04:44	05:20	19:50	20:25	21:03
20.04	05:48	12:34	19:21	13:33	+2:40	04:04	04:42	05:18	19:51	20:27	21:05
21.04	05:46	12:34	19:23	13:36	+2:40	04:02	04:41	05:16	19:52	20:28	21:06
22.04	05:45	12:34	19:24	13:39	+2:38	04:00	04:39	05:15	19:53	20:29	21:08
23.04	05:43	12:34	19:25	13:41	+2:39	03:58	04:37	05:13	19:55	20:31	21:09
24.04	05:42	12:34	19:26	13:44	+2:36	03:56	04:35	05:12	19:56	20:32	21:11
25.04	05:40	12:34	19:27	13:46	+2:35	03:54	04:34	05:10	19:57	20:33	21:13
26.04	05:39	12:33	19:28	13:49	+2:35	03:53	04:32	05:09	19:58	20:35	21:14
27.04	05:37	12:33	19:29	13:52	+2:34	03:51	04:30	05:07	19:59	20:36	21:16
28.04	05:36	12:33	19:30	13:54	+2:32	03:49	04:29	05:06	20:01	20:38	21:18
29.04	05:34	12:33	19:32	13:57	+2:31	03:47	04:27	05:04	20:02	20:39	21:19
30.04	05:33	12:33	19:33	13:59	+2:30	03:45	04:25	05:03	20:03	20:40	21:21
31.04	05:33	12:33	19:33	13:59	+2:30	03:45	04:25	05:03	20:03	20:40	21:21
01.05	05:32	12:33	19:34	14:02	+2:29	03:43	04:24	05:01	20:04	20:42	21:23
02.05	05:30	12:33	19:35	14:04	+2:27	03:41	04:22	05:00	20:06	20:43	21:24
03.05	05:29	12:33	19:36	14:07	+2:26	03:39	04:20	04:58	20:07	20:45	21:26
04.05	05:28	12:32	19:37	14:09	+2:24	03:37	04:19	04:57	20:08	20:46	21:28
05.05	05:26	12:32	19:38	14:11	+2:24	03:35	04:17	04:55	20:09	20:47	21:29
06.05	05:25	12:32	19:39	14:14	+2:21	03:34	04:16	04:54	20:10	20:49	21:31
07.05	05:24	12:32	19:40	14:16	+2:19	03:32	04:14	04:53	20:12	20:50	21:33
08.05	05:23	12:32	19:42	14:18	+2:19	03:30	04:13	04:52	20:13	20:52	21:35
09.05	05:22	12:32	19:43	14:21	+2:15	03:28	04:11	04:50	20:14	20:53	21:36
10.05	05:20	12:32	19:44	14:23	+2:15	03:26	04:10	04:49	20:15	20:54	21:38
11.05	05:19	12:32	19:45	14:25	+2:12	03:25	04:08	04:48	20:16	20:56	21:40
12.05	05:18	12:32	19:46	14:27	+2:11	03:23	04:07	04:47	20:18	20:57	21:41
13.05	05:17	12:32	19:47	14:29	+2:09	03:21	04:06	04:45	20:19	20:59	21:43
14.05	05:16	12:32	19:48	14:31	+2:07	03:19	04:04	04:44	20:20	21:00	21:45
15.05	05:15	12:32	19:49	14:34	+2:04	03:18	04:03	04:43	20:21	21:01	21:46
16.05	05:14	12:32	19:50	14:36	+2:02	03:16	04:02	04:42	20:22	21:03	21:48
17.05	05:13	12:32	19:51	14:38	+2:00	03:15	04:00	04:41	20:23	21:04	21:50
18.05	05:12	12:32	19:52	14:39	+1:57	03:13	03:59	04:40	20:25	21:05	21:51
19.05	05:11	12:32	19:53	14:41	+1:56	03:11	03:58	04:39	20:26	21:07	21:53
20.05	05:10	12:32	19:54	14:43	+1:52	03:10	03:57	04:38	20:27	21:08	21:55
21.05	05:10	12:32	19:55	14:45	+1:51	03:08	03:56	04:37	20:28	21:09	21:56
22.05	05:09	12:32	19:56	14:47	+1:48	03:07	03:55	04:36	20:29	21:10	21:58
23.05	05:08	12:33	19:57	14:49	+1:45	03:05	03:53	04:35	20:30	21:12	22:00
24.05	05:07	12:33	19:58	14:50	+1:42	03:04	03:52	04:34	20:31	21:13	22:01
25.05	05:06	12:33	19:59	14:52	+1:40	03:03	03:51	04:33	20:32	21:14	22:03
26.05	05:06	12:33	20:00	14:54	+1:37	03:01	03:50	04:33	20:33	21:15	22:04
27.05	05:05	12:33	20:01	14:55	+1:33	03:00	03:49	04:32	20:34	21:16	22:06
28.05	05:04	12:33	20:02	14:57	+1:31	02:59	03:49	04:31	20:35	21:18	22:07
29.05	05:04	12:33	20:03	14:58	+1:27	02:58	03:48	04:30	20:36	21:19	22:09
30.05	05:03	12:33	20:03	15:00	+1:25	02:57	03:47	04:30	20:37	21:20	22:10
31.05	05:03	12:33	20:04	15:01	+1:21	02:55	03:46	04:29	20:38	21:21	22:12
01.06	05:02	12:34	20:05	15:02	+1:18	02:54	03:45	04:28	20:39	21:22	22:13
02.06	05:02	12:34	20:06	15:04	+1:15	02:53	03:45	04:28	20:40	21:23	22:14
03.06	05:01	12:34	20:07	15:05	+1:11	02:52	03:44	04:27	20:40	21:24	22:16
04.06	05:01	12:34	20:07	15:06	+1:09	02:51	03:43	04:27	20:41	21:25	22:17
05.06	05:01	12:34	20:08	15:07	+1:04	02:51	03:43	04:26	20:42	21:26	22:18
06.06	05:00	12:34	20:09	15:08	+1:01	02:50	03:42	04:26	20:43	21:27	22:19
07.06	05:00	12:35	20:09	15:09	+0:58	02:49	03:42	04:26	20:44	21:27	22:20
08.06	05:00	12:35	20:10	15:10	+0:53	02:48	03:41	04:25	20:44	21:28	22:21
09.06	04:59	12:35	20:11	15:11	+0:51	02:48	03:41	04:25	20:45	21:29	22:22
10.06	04:59	12:35	20:11	15:11	+0:46	02:47	03:41	04:25	20:46	21:30	22:23
11.06	04:59	12:35	20:12	15:12	+0:42	02:47	03:40	04:25	20:46	21:30	22:24
12.06	04:59	12:36	20:12	15:13	+0:39	02:46	03:40	04:24	20:47	21:31	22:25
13.06	04:59	12:36	20:13	15:13	+0:36	02:46	03:40	04:24	20:47	21:32	22:26
14.06	04:59	12:36	20:13	15:14	+0:31	02:45	03:40	04:24	20:48	21:32	22:26
15.06	04:59	12:36	20:14	15:14	+0:28	02:45	03:39	04:24	20:48	21:33	22:27
16.06	04:59	12:36	20:14	15:15	+0:23	02:45	03:39	04:24	20:49	21:33	22:28
17.06	04:59	12:37	20:14	15:15	+0:20	02:45	03:39	04:24	20:49	21:34	22:28
18.06	04:59	12:37	20:15	15:15	+0:15	02:45	03:39	04:24	20:49	21:34	22:29
19.06	04:59	12:37	20:15	15:15	+0:12	02:45	03:39	04:24	20:50	21:34	22:29
20.06	04:59	12:37	20:15	15:16	+0:08	02:45	03:40	04:24	20:50	21:35	22:29
21.06	04:59	12:37	20:15	15:16	+0:04	02:45	03:40	04:25	20:50	21:35	22:30
22.06	04:59	12:38	20:16	15:16	+0:00	02:45	03:40	04:25	20:50	21:35	22:30
23.06	05:00	12:38	20:16	15:16	-0:04	02:46	03:40	04:25	20:51	21:35	22:30
24.06	05:00	12:38	20:16	15:15	-0:08	02:46	03:40	04:25	20:51	21:35	22:30
25.06	05:00	12:38	20:16	15:15	-0:12	02:46	03:41	04:26	20:51	21:36	22:30
26.06	05:01	12:38	20:16	15:15	-0:16	02:47	03:41	04:26	20:51	21:36	22:30
27.06	05:01	12:39	20:16	15:15	-0:20	02:47	03:42	04:26	20:51	21:36	22:30
28.06	05:01	12:39	20:16	15:14	-0:23	02:48	03:42	04:27	20:51	21:35	22:30
29.06	05:02	12:39	20:16	15:14	-0:28	02:49	03:43	04:27	20:51	21:35	22:29
30.06	05:02	12:39	20:16	15:13	-0:31	02:49	03:43	04:28	20:51	21:35	22:29
31.06	05:02	12:39	20:16	15:13	-0:31	02:49	03:43	04:28	20:51	21:35	22:29
01.07	05:03	12:39	20:16	15:13	-0:35	02:50	03:44	04:28	20:50	21:35	22:29
02.07	05:03	12:39	20:16	15:12	-0:39	02:51	03:44	04:29	20:50	21:35	22:28
03.07	05:04	12:40	20:16	15:11	-0:44	02:52	03:45	04:29	20:50	21:34	22:28
04.07	05:04	12:40	20:15	15:11	-0:45	02:53	03:46	04:30	20:50	21:34	22:27
05.07	05:05	12:40	20:15	15:10	-0:50	02:54	03:47	04:31	20:49	21:33	22:26
06.07	05:05	12:40	20:15	15:09	-0:54	02:55	03:47	04:31	20:49	21:33	22:26
07.07	05:06	12:40	20:15	15:08	-0:58	02:56	03:48	04:32	20:49	21:33	22:25
08.07	05:07	12:40	20:14	15:07	-1:00	02:57	03:49	04:33	20:48	21:32	22:24
09.07	05:07	12:41	20:14	15:06	-1:05	02:58	03:50	04:33	20:48	21:31	22:23
10.07	05:08	12:41	20:13	15:05	-1:08	02:59	03:51	04:34	20:47	21:31	22:22
11.07	05:09	12:41	20:13	15:04	-1:10	03:00	03:52	04:35	20:47	21:30	22:21
12.07	05:10	12:41	20:12	15:02	-1:15	03:02	03:53	04:36	20:46	21:29	22:20
13.07	05:10	12:41	20:12	15:01	-1:18	03:03	03:54	04:37	20:46	21:29	22:19
14.07	05:11	12:41	20:11	15:00	-1:21	03:04	03:55	04:38	20:45	21:28	22:18
15.07	05:12	12:41	20:11	14:58	-1:24	03:06	03:56	04:38	20:44	21:27	22:17
16.07	05:13	12:41	20:10	14:57	-1:27	03:07	03:57	04:39	20:44	21:26	22:16
17.07	05:14	12:42	20:09	14:55	-1:30	03:09	03:58	04:40	20:43	21:25	22:14
18.07	05:15	12:42	20:09	14:54	-1:33	03:10	03:59	04:41	20:42	21:24	22:13
19.07	05:15	12:42	20:08	14:52	-1:36	03:12	04:00	04:42	20:41	21:23	22:12
20.07	05:16	12:42	20:07	14:50	-1:38	03:13	04:02	04:43	20:40	21:22	22:10
21.07	05:17	12:42	20:07	14:49	-1:41	03:15	04:03	04:44	20:39	21:21	22:09
22.07	05:18	12:42	20:06	14:47	-1:45	03:16	04:04	04:45	20:39	21:20	22:08
23.07	05:19	12:42	20:05	14:45	-1:46	03:18	04:05	04:46	20:38	21:19	22:06
24.07	05:20	12:42	20:04	14:43	-1:49	03:19	04:06	04:47	20:37	21:18	22:05
25.07	05:21	12:42	20:03	14:42	-1:52	03:21	04:08	04:48	20:36	21:16	22:03
26.07	05:22	12:42	20:02	14:40	-1:55	03:23	04:09	04:50	20:35	21:15	22:02
27.07	05:23	12:42	20:01	14:38	-1:56	03:24	04:10	04:51	20:34	21:14	22:00
28.07	05:24	12:42	20:00	14:36	-1:59	03:26	04:11	04:52	20:32	21:13	21:58
29.07	05:25	12:42	19:59	14:34	-2:00	03:28	04:13	04:53	20:31	21:11	21:57
30.07	05:26	12:42	19:58	14:32	-2:03	03:29	04:14	04:54	20:30	21:10	21:55
31.07	05:27	12:42	19:57	14:30	-2:05	03:31	04:15	04:55	20:29	21:09	21:53
01.08	05:28	12:42	19:56	14:28	-2:07	03:32	04:17	04:56	20:28	21:07	21:51
02.08	05:29	12:42	19:55	14:25	-2:10	03:34	04:18	04:57	20:27	21:06	21:50
03.08	05:30	12:42	19:54	14:23	-2:11	03:36	04:19	04:58	20:25	21:04	21:48
04.08	05:31	12:42	19:53	14:21	-2:13	03:37	04:21	05:00	20:24	21:03	21:46
05.08	05:32	12:42	19:51	14:19	-2:14	03:39	04:22	05:01	20:23	21:01	21:44
06.08	05:33	12:42	19:50	14:16	-2:16	03:41	04:23	05:02	20:21	21:00	21:43
07.08	05:34	12:42	19:49	14:14	-2:18	03:42	04:25	05:03	20:20	20:58	21:41
08.08	05:35	12:41	19:48	14:12	-2:19	03:44	04:26	05:04	20:19	20:57	21:39
09.08	05:36	12:41	19:46	14:09	-2:21	03:46	04:27	05:05	20:17	20:55	21:37
10.08	05:37	12:41	19:45	14:07	-2:23	03:47	04:29	05:07	20:16	20:54	21:35
11.08	05:38	12:41	19:44	14:05	-2:24	03:49	04:30	05:08	20:14	20:52	21:33
12.08	05:39	12:41	19:42	14:02	-2:25	03:51	04:31	05:09	20:13	20:50	21:31
13.08	05:41	12:41	19:41	14:00	-2:26	03:52	04:33	05:10	20:11	20:49	21:29
14.08	05:42	12:41	19:40	13:57	-2:29	03:54	04:34	05:11	20:10	20:47	21:27
15.08	05:43	12:40	19:38	13:55	-2:28	03:55	04:35	05:12	20:08	20:45	21:25
16.08	05:44	12:40	19:37	13:52	-2:31	03:57	04:37	05:14	20:07	20:44	21:23
17.08	05:45	12:40	19:35	13:50	-2:31	03:59	04:38	05:15	20:05	20:42	21:21
18.08	05:46	12:40	19:34	13:47	-2:32	04:00	04:39	05:16	20:04	20:40	21:19
19.08	05:47	12:40	19:32	13:45	-2:34	04:02	04:41	05:17	20:02	20:38	21:17
20.08	05:48	12:39	19:31	13:42	-2:34	04:03	04:42	05:18	20:01	20:37	21:15
21.08	05:49	12:39	19:29	13:40	-2:35	04:05	04:43	05:19	19:59	20:35	21:13
22.08	05:50	12:39	19:28	13:37	-2:36	04:06	04:45	05:20	19:57	20:33	21:11
23.08	05:51	12:39	19:26	13:34	-2:38	04:08	04:46	05:22	19:56	20:31	21:09
24.08	05:52	12:38	19:25	13:32	-2:38	04:09	04:47	05:23	19:54	20:30	21:07
25.08	05:53	12:38	19:23	13:29	-2:39	04:11	04:48	05:24	19:52	20:28	21:05
26.08	05:54	12:38	19:21	13:26	-2:39	04:12	04:50	05:25	19:51	20:26	21:03
27.08	05:55	12:38	19:20	13:24	-2:41	04:14	04:51	05:26	19:49	20:24	21:01
28.08	05:56	12:37	19:18	13:21	-2:40	04:15	04:52	05:27	19:47	20:22	20:59
29.08	05:58	12:37	19:16	13:18	-2:42	04:17	04:54	05:28	19:46	20:20	20:57
30.08	05:59	12:37	19:15	13:16	-2:42	04:18	04:55	05:30	19:44	20:19	20:55
31.08	06:00	12:36	19:13	13:13	-2:43	04:20	04:56	05:31	19:42	20:17	20:53
01.09	06:01	12:36	19:11	13:10	-2:43	04:21	04:57	05:32	19:40	20:15	20:51
02.09	06:02	12:36	19:10	13:08	-2:44	04:22	04:58	05:33	19:39	20:13	20:49
03.09	06:03	12:35	19:08	13:05	-2:44	04:24	05:00	05:34	19:37	20:11	20:47
04.09	06:04	12:35	19:06	13:02	-2:45	04:25	05:01	05:35	19:35	20:09	20:45
05.09	06:05	12:35	19:05	12:59	-2:46	04:27	05:02	05:36	19:33	20:07	20:43
06.09	06:06	12:34	19:03	12:57	-2:45	04:28	05:03	05:37	19:32	20:06	20:41
07.09	06:07	12:34	19:01	12:54	-2:47	04:29	05:05	05:38	19:30	20:04	20:39
08.09	06:08	12:34	18:59	12:51	-2:47	04:31	05:06	05:40	19:28	20:02	20:37
09.09	06:09	12:33	18:58	12:48	-2:46	04:32	05:07	05:41	19:26	20:00	20:35
10.09	06:10	12:33	18:56	12:45	-2:47	04:33	05:08	05:42	19:24	19:58	20:33
11.09	06:11	12:33	18:54	12:43	-2:48	04:34	05:09	05:43	19:23	19:56	20:31
12.09	06:12	12:32	18:52	12:40	-2:47	04:36	05:10	05:44	19:21	19:54	20:29
13.09	06:13	12:32	18:51	12:37	-2:49	04:37	05:12	05:45	19:19	19:52	20:27
14.09	06:14	12:32	18:49	12:34	-2:48	04:38	05:13	05:46	19:17	19:50	20:25
15.09	06:15	12:31	18:47	12:31	-2:49	04:40	05:14	05:47	19:15	19:49	20:23
16.09	06:16	12:31	18:45	12:29	-2:48	04:41	05:15	05:48	19:14	19:47	20:21
17.09	06:17	12:30	18:44	12:26	-2:50	04:42	05:16	05:49	19:12	19:45	20:19
18.09	06:18	12:30	18:42	12:23	-2:49	04:43	05:17	05:50	19:10	19:43	20:17
19.09	06:19	12:30	18:40	12:20	-2:49	04:45	05:18	05:51	19:08	19:41	20:15
20.09	06:20	12:29	18:38	12:17	-2:50	04:46	05:19	05:52	19:06	19:39	20:13
21.09	06:21	12:29	18:36	12:14	-2:49	04:47	05:21	05:53	19:04	19:37	20:11
22.09	06:23	12:29	18:35	12:12	-2:49	04:48	05:22	05:55	19:03	19:36	20:09
23.09	06:24	12:28	18:33	12:09	-2:51	04:49	05:23	05:56	19:01	19:34	20:07
24.09	06:25	12:28	18:31	12:06	-2:49	04:51	05:24	05:57	18:59	19:32	20:05
25.09	06:26	12:28	18:29	12:03	-2:50	04:52	05:25	05:58	18:57	19:30	20:03
26.09	06:27	12:27	18:28	12:00	-2:50	04:53	05:26	05:59	18:56	19:28	20:01
27.09	07:28	13:27	19:26	11:58	-2:50	05:54	06:27	07:00	19:54	20:26	21:00
28.09	07:29	13:26	19:24	11:55	-2:49	05:55	06:28	07:01	19:52	20:25	20:58
29.09	07:30	13:26	19:22	11:52	-2:50	05:56	06:29	07:02	19:50	20:23	20:56
30.09	07:31	13:26	19:21	11:49	-2:50	05:58	06:31	07:03	19:48	20:21	20:54
31.09	07:31	13:26	19:21	11:49	-2:50	05:58	06:31	07:03	19:48	20:21	20:54
01.10	07:32	13:25	19:19	11:46	-2:49	05:59	06:32	07:04	19:47	20:19	20:52
02.10	07:33	13:25	19:17	11:43	-2:49	06:00	06:33	07:05	19:45	20:17	20:50
03.10	07:34	13:25	19:15	11:41	-2:50	06:01	06:34	07:06	19:43	20:16	20:49
04.10	07:35	13:24	19:14	11:38	-2:49	06:02	06:35	07:07	19:42	20:14	20:47
05.10	07:36	13:24	19:12	11:35	-2:49	06:03	06:36	07:08	19:40	20:12	20:45
06.10	07:38	13:24	19:10	11:32	-2:49	06:04	06:37	07:10	19:38	20:11	20:43
07.10	07:39	13:24	19:08	11:29	-2:48	06:06	06:38	07:11	19:36	20:09	20:41
08.10	07:40	13:23	19:07	11:26	-2:49	06:07	06:39	07:12	19:35	20:07	20:40
09.10	07:41	13:23	19:05	11:24	-2:48	06:08	06:40	07:13	19:33	20:06	20:38
10.10	07:42	13:23	19:03	11:21	-2:48	06:09	06:41	07:14	19:31	20:04	20:36
11.10	07:43	13:22	19:02	11:18	-2:48	06:10	06:43	07:15	19:30	20:02	20:35
12.10	07:44	13:22	19:00	11:15	-2:46	06:11	06:44	07:16	19:28	20:01	20:33
13.10	07:45	13:22	18:58	11:13	-2:47	06:12	06:45	07:17	19:27	19:59	20:31
14.10	07:46	13:22	18:57	11:10	-2:47	06:13	06:46	07:18	19:25	19:57	20:30
15.10	07:48	13:21	18:55	11:07	-2:46	06:14	06:47	07:19	19:23	19:56	20:28
16.10	07:49	13:21	18:54	11:04	-2:45	06:16	06:48	07:21	19:22	19:54	20:27
17.10	07:50	13:21	18:52	11:01	-2:45	06:17	06:49	07:22	19:20	19:53	20:25
18.10	07:51	13:21	18:50	10:59	-2:44	06:18	06:50	07:23	19:19	19:51	20:24
19.10	07:52	13:21	18:49	10:56	-2:44	06:19	06:51	07:24	19:17	19:50	20:22
20.10	07:53	13:20	18:47	10:53	-2:43	06:20	06:52	07:25	19:16	19:48	20:21
21.10	07:55	13:20	18:46	10:51	-2:43	06:21	06:54	07:26	19:14	19:47	20:19
22.10	07:56	13:20	18:44	10:48	-2:41	06:22	06:55	07:27	19:13	19:45	20:18
23.10	07:57	13:20	18:43	10:45	-2:42	06:23	06:56	07:28	19:11	19:44	20:16
24.10	07:58	13:20	18:41	10:43	-2:40	06:24	06:57	07:30	19:10	19:43	20:15
25.10	07:59	13:20	18:40	10:40	-2:40	06:26	06:58	07:31	19:09	19:41	20:14
26.10	08:01	13:20	18:38	10:37	-2:39	06:27	06:59	07:32	19:07	19:40	20:12
27.10	08:02	13:19	18:37	10:35	-2:37	06:28	07:00	07:33	19:06	19:39	20:11
28.10	08:03	13:19	18:36	10:32	-2:37	06:29	07:01	07:34	19:05	19:37	20:10
29.10	08:04	13:19	18:34	10:29	-2:36	06:30	07:03	07:35	19:03	19:36	20:09
30.10	08:06	13:19	18:33	10:27	-2:35	06:31	07:04	07:37	19:02	19:35	20:07
31.10	08:07	13:19	18:32	10:24	-2:33	06:32	07:05	07:38	19:01	19:34	20:06
01.11	08:08	13:19	18:30	10:22	-2:33	06:33	07:06	07:39	18:59	19:33	20:05
02.11	08:09	13:19	18:29	10:19	-2:31	06:34	07:07	07:40	18:58	19:31	20:04
03.11	08:11	13:19	18:28	10:17	-2:30	06:36	07:08	07:41	18:57	19:30	20:03
04.11	08:12	13:19	18:27	10:14	-2:29	06:37	07:09	07:43	18:56	19:29	20:02
05.11	08:13	13:19	18:25	10:12	-2:28	06:38	07:10	07:44	18:55	19:28	20:01
06.11	08:14	13:19	18:24	10:09	-2:26	06:39	07:12	07:45	18:54	19:27	20:00
07.11	08:16	13:19	18:23	10:07	-2:24	06:40	07:13	07:46	18:53	19:26	19:59
08.11	08:17	13:19	18:22	10:05	-2:23	06:41	07:14	07:47	18:52	19:25	19:58
09.11	08:18	13:20	18:21	10:02	-2:21	06:42	07:15	07:49	18:51	19:24	19:57
10.11	08:19	13:20	18:20	10:00	-2:19	06:43	07:16	07:50	18:50	19:23	19:56
11.11	08:21	13:20	18:19	09:58	-2:18	06:44	07:17	07:51	18:49	19:22	19:55
12.11	08:22	13:20	18:18	09:55	-2:16	06:45	07:18	07:52	18:48	19:21	19:54
13.11	08:23	13:20	18:17	09:53	-2:13	06:47	07:20	07:53	18:47	19:21	19:54
14.11	08:24	13:20	18:16	09:51	-2:13	06:48	07:21	07:54	18:46	19:20	19:53
15.11	08:26	13:20	18:15	09:49	-2:09	06:49	07:22	07:56	18:45	19:19	19:52
16.11	08:27	13:21	18:14	09:47	-2:08	06:50	07:23	07:57	18:44	19:18	19:51
17.11	08:28	13:21	18:13	09:44	-2:05	06:51	07:24	07:58	18:43	19:17	19:51
18.11	08:29	13:21	18:12	09:42	-2:04	06:52	07:25	07:59	18:43	19:17	19:50
19.11	08:31	13:21	18:12	09:40	-2:01	06:53	07:26	08:00	18:42	19:16	19:49
20.11	08:32	13:21	18:11	09:38	-1:58	06:54	07:27	08:01	18:41	19:16	19:49
21.11	08:33	13:22	18:10	09:37	-1:56	06:55	07:28	08:03	18:41	19:15	19:48
22.11	08:34	13:22	18:09	09:35	-1:53	06:56	07:29	08:04	18:40	19:14	19:48
23.11	08:36	13:22	18:09	09:33	-1:50	06:57	07:30	08:05	18:40	19:14	19:47
24.11	08:37	13:22	18:08	09:31	-1:48	06:58	07:32	08:06	18:39	19:13	19:47
25.11	08:38	13:23	18:08	09:29	-1:44	06:59	07:33	08:07	18:38	19:13	19:46
26.11	08:39	13:23	18:07	09:28	-1:42	07:00	07:34	08:08	18:38	19:13	19:46
27.11	08:40	13:23	18:07	09:26	-1:39	07:01	07:35	08:09	18:38	19:12	19:46
28.11	08:41	13:24	18:06	09:24	-1:36	07:02	07:36	08:10	18:37	19:12	19:45
29.11	08:42	13:24	18:06	09:23	-1:32	07:03	07:37	08:11	18:37	19:12	19:45
30.11	08:44	13:24	18:05	09:21	-1:29	07:04	07:38	08:12	18:36	19:11	19:45
31.11	08:44	13:24	18:05	09:21	-1:29	07:04	07:38	08:12	18:36	19:11	19:45
01.12	08:45	13:25	18:05	09:20	-1:27	07:05	07:39	08:13	18:36	19:11	19:45
02.12	08:46	13:25	18:05	09:18	-1:22	07:06	07:39	08:14	18:36	19:11	19:45
03.12	08:47	13:26	18:04	09:17	-1:19	07:07	07:40	08:15	18:36	19:11	19:44
04.12	08:48	13:26	18:04	09:16	-1:15	07:08	07:41	08:16	18:36	19:11	19:44
05.12	08:49	13:26	18:04	09:15	-1:12	07:08	07:42	08:17	18:35	19:10	19:44
06.12	08:50	13:27	18:04	09:14	-1:08	07:09	07:43	08:18	18:35	19:10	19:44
07.12	08:51	13:27	18:04	09:13	-1:04	07:10	07:44	08:19	18:35	19:10	19:44
08.12	08:52	13:28	18:04	09:11	-1:01	07:11	07:45	08:20	18:35	19:10	19:44
09.12	08:52	13:28	18:04	09:11	-0:56	07:12	07:46	08:21	18:35	19:10	19:44
10.12	08:53	13:28	18:04	09:10	-0:53	07:12	07:46	08:22	18:35	19:10	19:44
11.12	08:54	13:29	18:04	09:09	-0:49	07:13	07:47	08:22	18:35	19:11	19:45
12.12	08:55	13:29	18:04	09:08	-0:44	07:14	07:48	08:23	18:35	19:11	19:45
13.12	08:56	13:30	18:04	09:07	-0:41	07:15	07:49	08:24	18:36	19:11	19:45
14.12	08:57	13:30	18:04	09:07	-0:36	07:15	07:49	08:25	18:36	19:11	19:45
15.12	08:57	13:31	18:04	09:06	-0:32	07:16	07:50	08:25	18:36	19:11	19:45
16.12	08:58	13:31	18:04	09:06	-0:27	07:17	07:51	08:26	18:36	19:12	19:46
17.12	08:59	13:32	18:05	09:05	-0:25	07:17	07:51	08:27	18:37	19:12	19:46
18.12	08:59	13:32	18:05	09:05	-0:19	07:18	07:52	08:27	18:37	19:12	19:46
19.12	09:00	13:33	18:05	09:05	-0:14	07:18	07:53	08:28	18:37	19:13	19:47
20.12	09:00	13:33	18:06	09:05	-0:12	07:19	07:53	08:29	18:38	19:13	19:47
21.12	09:01	13:34	18:06	09:05	-0:06	07:20	07:54	08:29	18:38	19:13	19:48
22.12	09:02	13:34	18:07	09:05	-0:02	07:20	07:54	08:30	18:39	19:14	19:48
23.12	09:02	13:35	18:07	09:05	+0:02	07:20	07:55	08:30	18:39	19:14	19:49
24.12	09:02	13:35	18:08	09:05	+0:07	07:21	07:55	08:30	18:40	19:15	19:49
25.12	09:03	13:35	18:08	09:05	+0:11	07:21	07:55	08:31	18:40	19:16	19:50
26.12	09:03	13:36	18:09	09:05	+0:15	07:22	07:56	08:31	18:41	19:16	19:50
27.12	09:03	13:36	18:09	09:05	+0:20	07:22	07:56	08:32	18:41	19:17	19:51
28.12	09:04	13:37	18:10	09:06	+0:23	07:22	07:57	08:32	18:42	19:17	19:51
29.12	09:04	13:37	18:11	09:06	+0:29	07:23	07:57	08:32	18:43	19:18	19:52
30.12	09:04	13:38	18:12	09:07	+0:32	07:23	07:57	08:32	18:43	19:19	19:53
31.12	09:04	13:38	18:12	09:07	+0:37	07:23	07:57	08:33	18:44	19:19	19:53